<?xml version="1.0" encoding="UTF-8" standalone="no" ?>
<!DOCTYPE svg PUBLIC "-//W3C//DTD SVG 1.1//EN" "http://www.w3.org/Graphics/SVG/1.1/DTD/svg11.dtd">
<svg width="431mm" xmlns="http://www.w3.org/2000/svg" height="218mm" version="1.1" viewBox="0 0 1633 828" xmlns:xlink="http://www.w3.org/1999/xlink">
   <polyline fill="none" points="423,361 423,270" stroke="#8080ff" stroke-width="1"/>
   <polygon fill="#8080ff" points="423,270 426,283 420,283" stroke="#8080ff" stroke-width="1" stroke-linejoin="miter"/>
   <polyline fill="none" points="358,484 358,451 358,451 358,421" stroke="#8080ff" stroke-width="1"/>
   <polygon fill="#8080ff" points="358,421 361,435 355,435" stroke="#8080ff" stroke-width="1" stroke-linejoin="miter"/>
   <polyline fill="none" points="889,726 1307,726" stroke="#8080ff" stroke-width="1"/>
   <polygon fill="#8080ff" points="1307,726 1294,729 1294,723" stroke="#8080ff" stroke-width="1" stroke-linejoin="miter"/>
   <polyline fill="none" points="1367,696 1367,391" stroke="#8080ff" stroke-width="1"/>
   <polygon fill="#8080ff" points="1367,391 1370,405 1364,405" stroke="#8080ff" stroke-width="1" stroke-linejoin="miter"/>
   <polyline fill="none" points="1367,176 1367,110" stroke="#8080ff" stroke-width="1"/>
   <polygon fill="#8080ff" points="1367,110 1370,123 1364,123" stroke="#8080ff" stroke-width="1" stroke-linejoin="miter"/>
   <polyline fill="none" points="1160,186 732,186" stroke="#8080ff" stroke-width="1"/>
   <polygon fill="#8080ff" points="732,186 746,183 746,189" stroke="#8080ff" stroke-width="1" stroke-linejoin="miter"/>
   <polyline fill="none" points="1436,659 1436,696" stroke="#8080ff" stroke-width="1"/>
   <polygon fill="#8080ff" points="1436,696 1433,682 1439,682" stroke="#8080ff" stroke-width="1" stroke-linejoin="miter"/>
   <polyline fill="none" points="1182,641 1253,641 1253,391" stroke="#8080ff" stroke-width="1"/>
   <polygon fill="#8080ff" points="1253,391 1256,405 1250,405" stroke="#8080ff" stroke-width="1" stroke-linejoin="miter"/>
   <polyline fill="none" points="699,767 495,767 495,767 376,767" stroke="#8080ff" stroke-width="1"/>
   <polygon fill="#8080ff" points="376,767 389,764 389,770" stroke="#8080ff" stroke-width="1" stroke-linejoin="miter"/>
   <polyline fill="none" points="287,205 287,154" stroke="#8080ff" stroke-width="1"/>
   <polygon fill="#8080ff" points="287,154 290,167 284,167" stroke="#8080ff" stroke-width="1" stroke-linejoin="miter"/>
   <polyline fill="none" points="577,722 699,722" stroke="#8080ff" stroke-width="1"/>
   <polygon fill="#8080ff" points="699,722 686,725 686,719" stroke="#8080ff" stroke-width="1" stroke-linejoin="miter"/>
   <polyline fill="none" points="1455,378 1375,378" stroke="#8080ff" stroke-width="1"/>
   <polygon fill="#8080ff" points="1375,378 1388,375 1388,381" stroke="#8080ff" stroke-width="1" stroke-linejoin="miter"/>
   <polyline fill="none" points="1535,419 1535,483" stroke="#8080ff" stroke-width="1"/>
   <polygon fill="#8080ff" points="1535,483 1532,470 1538,470" stroke="#8080ff" stroke-width="1" stroke-linejoin="miter"/>
   <polyline fill="none" points="220,330 220,484" stroke="#8080ff" stroke-width="1"/>
   <polygon fill="#8080ff" points="220,484 217,471 223,471" stroke="#8080ff" stroke-width="1" stroke-linejoin="miter"/>
   <polyline fill="none" points="487,668 487,655 406,655" stroke="#8080ff" stroke-width="1"/>
   <polygon fill="#8080ff" points="406,655 419,652 419,658" stroke="#8080ff" stroke-width="1" stroke-linejoin="miter"/>
   <polyline fill="none" points="640,631 406,631" stroke="#8080ff" stroke-width="1"/>
   <polygon fill="#8080ff" points="406,631 419,628 419,634" stroke="#8080ff" stroke-width="1" stroke-linejoin="miter"/>
   <polyline fill="none" points="638,360 638,285" stroke="#8080ff" stroke-width="1"/>
   <polygon fill="#8080ff" points="638,285 641,298 635,298" stroke="#8080ff" stroke-width="1" stroke-linejoin="miter"/>
   <polyline fill="none" points="632,420 632,494 406,494" stroke="#8080ff" stroke-width="1"/>
   <polygon fill="#8080ff" points="406,494 419,491 419,497" stroke="#8080ff" stroke-width="1" stroke-linejoin="miter"/>
   <polyline fill="none" points="94,69 94,756 188,756" stroke="#8080ff" stroke-width="1"/>
   <polygon fill="#8080ff" points="188,756 174,759 174,753" stroke="#8080ff" stroke-width="1" stroke-linejoin="miter"/>
   <polyline fill="none" points="173,42 638,42 638,82" stroke="#8080ff" stroke-width="1"/>
   <polygon fill="#8080ff" points="638,82 635,68 641,68" stroke="#8080ff" stroke-width="1" stroke-linejoin="miter"/>
   <polyline fill="none" points="995,274 995,374" stroke="#8080ff" stroke-width="1"/>
   <polygon fill="#8080ff" points="995,374 992,360 998,360" stroke="#8080ff" stroke-width="1" stroke-linejoin="miter"/>
   <polyline fill="none" points="287,330 287,361" stroke="#8080ff" stroke-width="1"/>
   <polygon fill="#8080ff" points="287,361 284,348 290,348" stroke="#8080ff" stroke-width="1" stroke-linejoin="miter"/>
   <polyline fill="none" points="794,639 999,639" stroke="#8080ff" stroke-width="1"/>
   <polygon fill="#8080ff" points="999,639 986,642 986,636" stroke="#8080ff" stroke-width="1" stroke-linejoin="miter"/>
   <polyline fill="none" points="1082,248 1160,248" stroke="#8080ff" stroke-width="1"/>
   <polygon fill="#8080ff" points="1160,248 1146,251 1146,245" stroke="#8080ff" stroke-width="1" stroke-linejoin="miter"/>
   <a target="_parent" xlink:href="Rapp18.htm#640">
      <rect x="275" y="361" fill="#ffffff" width="0" height="0" stroke="none" stroke-width="0"/>
      <defs>
         <linearGradient id="Gradient1" x1="0%" x2="100%" y1="0%" y2="100%" gradientUnits="objectBoundingBox">
            <stop offset="5%" stop-color="#ffffff"/>
            <stop offset="95%" stop-color="#b0ffff"/>
         </linearGradient>
      </defs>
      <rect x="275" y="361" fill="url(#Gradient1)" width="165" height="60" stroke="#00aaaa" stroke-width="1"/>
      <text x="357" y="372" fill="#000000" font-size="10" font-family="'Arial Unicode MS','Arial'" text-anchor="middle">Function</text>
      <line x1="275" x2="440" y1="378" y2="378" stroke="#00aaaa" stroke-width="1"/>
      <text x="280" y="388" fill="#000000" font-size="10" font-family="'Arial Unicode MS','Arial'" text-anchor="start" text-decoration="underline">idFunction</text>
      <text x="280" y="401" fill="#000000" font-size="10" font-family="'Arial Unicode MS','Arial'" text-anchor="start">idArea</text>
      <text x="280" y="414" fill="#000000" font-size="10" font-family="'Arial Unicode MS','Arial'" text-anchor="start">labelFunction</text>
      <text x="353" y="388" fill="#000000" font-size="10" font-family="'Arial Unicode MS','Arial'" text-anchor="start" text-decoration="underline">integer</text>
      <text x="353" y="401" fill="#000000" font-size="10" font-family="'Arial Unicode MS','Arial'" text-anchor="start">integer</text>
      <text x="353" y="414" fill="#000000" font-size="10" font-family="'Arial Unicode MS','Arial'" text-anchor="start">varchar(50)</text>
      <text x="413" y="388" fill="#000000" font-size="10" font-family="'Arial Unicode MS','Arial'" text-anchor="start" text-decoration="underline">&lt;pk&gt;</text>
      <text x="413" y="401" fill="#000000" font-size="10" font-family="'Arial Unicode MS','Arial'" text-anchor="start">&lt;fk&gt;</text>
   </a>
   <a target="_parent" xlink:href="Rapp17.htm#605">
      <rect x="351" y="216" fill="#ffffff" width="0" height="0" stroke="none" stroke-width="0"/>
      <defs>
         <linearGradient id="Gradient2" x1="0%" x2="100%" y1="0%" y2="100%" gradientUnits="objectBoundingBox">
            <stop offset="5%" stop-color="#ffffff"/>
            <stop offset="95%" stop-color="#b0ffff"/>
         </linearGradient>
      </defs>
      <rect x="351" y="216" fill="url(#Gradient2)" width="144" height="54" stroke="#00aaaa" stroke-width="1"/>
      <text x="423" y="227" fill="#000000" font-size="10" font-family="'Arial Unicode MS','Arial'" text-anchor="middle">FirmDepartment</text>
      <line x1="351" x2="495" y1="233" y2="233" stroke="#00aaaa" stroke-width="1"/>
      <text x="355" y="243" fill="#000000" font-size="10" font-family="'Arial Unicode MS','Arial'" text-anchor="start" text-decoration="underline">idArea</text>
      <text x="355" y="256" fill="#000000" font-size="10" font-family="'Arial Unicode MS','Arial'" text-anchor="start">labelFirm</text>
      <text x="408" y="243" fill="#000000" font-size="10" font-family="'Arial Unicode MS','Arial'" text-anchor="start" text-decoration="underline">integer</text>
      <text x="408" y="256" fill="#000000" font-size="10" font-family="'Arial Unicode MS','Arial'" text-anchor="start">varchar(50)</text>
      <text x="468" y="243" fill="#000000" font-size="10" font-family="'Arial Unicode MS','Arial'" text-anchor="start" text-decoration="underline">&lt;pk&gt;</text>
   </a>
   <a target="_parent" xlink:href="Rapp27.htm#1165">
      <rect x="223" y="100" fill="#ffffff" width="0" height="0" stroke="none" stroke-width="0"/>
      <defs>
         <linearGradient id="Gradient3" x1="0%" x2="100%" y1="0%" y2="100%" gradientUnits="objectBoundingBox">
            <stop offset="5%" stop-color="#ffffff"/>
            <stop offset="95%" stop-color="#b0ffff"/>
         </linearGradient>
      </defs>
      <rect x="223" y="100" fill="url(#Gradient3)" width="153" height="54" stroke="#00aaaa" stroke-width="1"/>
      <text x="299" y="111" fill="#000000" font-size="10" font-family="'Arial Unicode MS','Arial'" text-anchor="middle">Status</text>
      <line x1="223" x2="376" y1="117" y2="117" stroke="#00aaaa" stroke-width="1"/>
      <text x="228" y="127" fill="#000000" font-size="10" font-family="'Arial Unicode MS','Arial'" text-anchor="start" text-decoration="underline">idStatus</text>
      <text x="228" y="140" fill="#000000" font-size="10" font-family="'Arial Unicode MS','Arial'" text-anchor="start">labelStatus</text>
      <text x="289" y="127" fill="#000000" font-size="10" font-family="'Arial Unicode MS','Arial'" text-anchor="start" text-decoration="underline">integer</text>
      <text x="289" y="140" fill="#000000" font-size="10" font-family="'Arial Unicode MS','Arial'" text-anchor="start">varchar(20)</text>
      <text x="349" y="127" fill="#000000" font-size="10" font-family="'Arial Unicode MS','Arial'" text-anchor="start" text-decoration="underline">&lt;pk&gt;</text>
   </a>
   <a target="_parent" xlink:href="Rapp21.htm#806">
      <rect x="1160" y="176" fill="#ffffff" width="0" height="0" stroke="none" stroke-width="0"/>
      <defs>
         <linearGradient id="Gradient4" x1="0%" x2="100%" y1="0%" y2="100%" gradientUnits="objectBoundingBox">
            <stop offset="5%" stop-color="#ffffff"/>
            <stop offset="95%" stop-color="#b0ffff"/>
         </linearGradient>
      </defs>
      <rect x="1160" y="176" fill="url(#Gradient4)" width="215" height="215" stroke="#00aaaa" stroke-width="1"/>
      <text x="1267" y="187" fill="#000000" font-size="10" font-family="'Arial Unicode MS','Arial'" text-anchor="middle">Project</text>
      <line x1="1160" x2="1375" y1="193" y2="193" stroke="#00aaaa" stroke-width="1"/>
      <text x="1164" y="203" fill="#000000" font-size="10" font-family="'Arial Unicode MS','Arial'" text-anchor="start" text-decoration="underline">idProject</text>
      <text x="1164" y="216" fill="#000000" font-size="10" font-family="'Arial Unicode MS','Arial'" text-anchor="start">idClient</text>
      <text x="1164" y="229" fill="#000000" font-size="10" font-family="'Arial Unicode MS','Arial'" text-anchor="start">idTypeProject</text>
      <text x="1164" y="242" fill="#000000" font-size="10" font-family="'Arial Unicode MS','Arial'" text-anchor="start">ShortNameProject</text>
      <text x="1164" y="255" fill="#000000" font-size="10" font-family="'Arial Unicode MS','Arial'" text-anchor="start">longNameProject</text>
      <text x="1164" y="268" fill="#000000" font-size="10" font-family="'Arial Unicode MS','Arial'" text-anchor="start">lifeCycleProject</text>
      <text x="1164" y="281" fill="#000000" font-size="10" font-family="'Arial Unicode MS','Arial'" text-anchor="start">globalChargeEstimate</text>
      <text x="1164" y="294" fill="#000000" font-size="10" font-family="'Arial Unicode MS','Arial'" text-anchor="start">maximumSizeTeam</text>
      <text x="1164" y="307" fill="#000000" font-size="10" font-family="'Arial Unicode MS','Arial'" text-anchor="start">sizeProject</text>
      <text x="1164" y="320" fill="#000000" font-size="10" font-family="'Arial Unicode MS','Arial'" text-anchor="start">saleComment</text>
      <text x="1164" y="333" fill="#000000" font-size="10" font-family="'Arial Unicode MS','Arial'" text-anchor="start">technicalComment</text>
      <text x="1164" y="346" fill="#000000" font-size="10" font-family="'Arial Unicode MS','Arial'" text-anchor="start">previsionalStartDate</text>
      <text x="1164" y="359" fill="#000000" font-size="10" font-family="'Arial Unicode MS','Arial'" text-anchor="start">previsionalEndDate</text>
      <text x="1164" y="372" fill="#000000" font-size="10" font-family="'Arial Unicode MS','Arial'" text-anchor="start">realStartDate</text>
      <text x="1164" y="385" fill="#000000" font-size="10" font-family="'Arial Unicode MS','Arial'" text-anchor="start">realEndDate</text>
      <text x="1277" y="203" fill="#000000" font-size="10" font-family="'Arial Unicode MS','Arial'" text-anchor="start" text-decoration="underline">integer</text>
      <text x="1277" y="216" fill="#000000" font-size="10" font-family="'Arial Unicode MS','Arial'" text-anchor="start">integer</text>
      <text x="1277" y="229" fill="#000000" font-size="10" font-family="'Arial Unicode MS','Arial'" text-anchor="start">integer</text>
      <text x="1277" y="242" fill="#000000" font-size="10" font-family="'Arial Unicode MS','Arial'" text-anchor="start">char(5)</text>
      <text x="1277" y="255" fill="#000000" font-size="10" font-family="'Arial Unicode MS','Arial'" text-anchor="start">varchar(50)</text>
      <text x="1277" y="268" fill="#000000" font-size="10" font-family="'Arial Unicode MS','Arial'" text-anchor="start">varchar(256)</text>
      <text x="1277" y="281" fill="#000000" font-size="10" font-family="'Arial Unicode MS','Arial'" text-anchor="start">time</text>
      <text x="1277" y="294" fill="#000000" font-size="10" font-family="'Arial Unicode MS','Arial'" text-anchor="start">integer</text>
      <text x="1277" y="307" fill="#000000" font-size="10" font-family="'Arial Unicode MS','Arial'" text-anchor="start">integer</text>
      <text x="1277" y="320" fill="#000000" font-size="10" font-family="'Arial Unicode MS','Arial'" text-anchor="start">varchar(256)</text>
      <text x="1277" y="333" fill="#000000" font-size="10" font-family="'Arial Unicode MS','Arial'" text-anchor="start">varchar(256)</text>
      <text x="1277" y="346" fill="#000000" font-size="10" font-family="'Arial Unicode MS','Arial'" text-anchor="start">date</text>
      <text x="1277" y="359" fill="#000000" font-size="10" font-family="'Arial Unicode MS','Arial'" text-anchor="start">date</text>
      <text x="1277" y="372" fill="#000000" font-size="10" font-family="'Arial Unicode MS','Arial'" text-anchor="start">date</text>
      <text x="1277" y="385" fill="#000000" font-size="10" font-family="'Arial Unicode MS','Arial'" text-anchor="start">date</text>
      <text x="1343" y="203" fill="#000000" font-size="10" font-family="'Arial Unicode MS','Arial'" text-anchor="start" text-decoration="underline">&lt;pk&gt;</text>
      <text x="1343" y="216" fill="#000000" font-size="10" font-family="'Arial Unicode MS','Arial'" text-anchor="start">&lt;fk2&gt;</text>
      <text x="1343" y="229" fill="#000000" font-size="10" font-family="'Arial Unicode MS','Arial'" text-anchor="start">&lt;fk1&gt;</text>
   </a>
   <a target="_parent" xlink:href="Rapp28.htm#1200">
      <rect x="899" y="374" fill="#ffffff" width="0" height="0" stroke="none" stroke-width="0"/>
      <defs>
         <linearGradient id="Gradient5" x1="0%" x2="100%" y1="0%" y2="100%" gradientUnits="objectBoundingBox">
            <stop offset="5%" stop-color="#ffffff"/>
            <stop offset="95%" stop-color="#b0ffff"/>
         </linearGradient>
      </defs>
      <rect x="899" y="374" fill="url(#Gradient5)" width="192" height="53" stroke="#00aaaa" stroke-width="1"/>
      <text x="995" y="385" fill="#000000" font-size="10" font-family="'Arial Unicode MS','Arial'" text-anchor="middle">TechnicalInformation</text>
      <line x1="899" x2="1091" y1="391" y2="391" stroke="#00aaaa" stroke-width="1"/>
      <text x="904" y="401" fill="#000000" font-size="10" font-family="'Arial Unicode MS','Arial'" text-anchor="start" text-decoration="underline">idTechnicalInfo</text>
      <text x="904" y="414" fill="#000000" font-size="10" font-family="'Arial Unicode MS','Arial'" text-anchor="start">labeltechnicalInfo</text>
      <text x="997" y="401" fill="#000000" font-size="10" font-family="'Arial Unicode MS','Arial'" text-anchor="start" text-decoration="underline">integer</text>
      <text x="997" y="414" fill="#000000" font-size="10" font-family="'Arial Unicode MS','Arial'" text-anchor="start">varchar(256)</text>
      <text x="1063" y="401" fill="#000000" font-size="10" font-family="'Arial Unicode MS','Arial'" text-anchor="start" text-decoration="underline">&lt;pk&gt;</text>
   </a>
   <a target="_parent" xlink:href="Rapp15.htm#467">
      <rect x="212" y="484" fill="#ffffff" width="0" height="0" stroke="none" stroke-width="0"/>
      <defs>
         <linearGradient id="Gradient6" x1="0%" x2="100%" y1="0%" y2="100%" gradientUnits="objectBoundingBox">
            <stop offset="5%" stop-color="#ffffff"/>
            <stop offset="95%" stop-color="#b0ffff"/>
         </linearGradient>
      </defs>
      <rect x="212" y="484" fill="url(#Gradient6)" width="194" height="177" stroke="#00aaaa" stroke-width="1"/>
      <text x="309" y="495" fill="#000000" font-size="10" font-family="'Arial Unicode MS','Arial'" text-anchor="middle">Employee</text>
      <line x1="212" x2="406" y1="501" y2="501" stroke="#00aaaa" stroke-width="1"/>
      <text x="217" y="511" fill="#000000" font-size="10" font-family="'Arial Unicode MS','Arial'" text-anchor="start" text-decoration="underline">idEmployee</text>
      <text x="217" y="524" fill="#000000" font-size="10" font-family="'Arial Unicode MS','Arial'" text-anchor="start">idProject</text>
      <text x="217" y="537" fill="#000000" font-size="10" font-family="'Arial Unicode MS','Arial'" text-anchor="start">idFunction</text>
      <text x="217" y="550" fill="#000000" font-size="10" font-family="'Arial Unicode MS','Arial'" text-anchor="start">titleEmployee</text>
      <text x="217" y="563" fill="#000000" font-size="10" font-family="'Arial Unicode MS','Arial'" text-anchor="start">nameEmployee</text>
      <text x="217" y="576" fill="#000000" font-size="10" font-family="'Arial Unicode MS','Arial'" text-anchor="start">sexeEmployee</text>
      <text x="217" y="589" fill="#000000" font-size="10" font-family="'Arial Unicode MS','Arial'" text-anchor="start">adress1Employee</text>
      <text x="217" y="602" fill="#000000" font-size="10" font-family="'Arial Unicode MS','Arial'" text-anchor="start">adress2Employee</text>
      <text x="217" y="615" fill="#000000" font-size="10" font-family="'Arial Unicode MS','Arial'" text-anchor="start">zipCodeEmployee</text>
      <text x="217" y="628" fill="#000000" font-size="10" font-family="'Arial Unicode MS','Arial'" text-anchor="start">phoneEmployee</text>
      <text x="217" y="641" fill="#000000" font-size="10" font-family="'Arial Unicode MS','Arial'" text-anchor="start">salary</text>
      <text x="217" y="654" fill="#000000" font-size="10" font-family="'Arial Unicode MS','Arial'" text-anchor="start">login</text>
      <text x="312" y="511" fill="#000000" font-size="10" font-family="'Arial Unicode MS','Arial'" text-anchor="start" text-decoration="underline">integer</text>
      <text x="312" y="524" fill="#000000" font-size="10" font-family="'Arial Unicode MS','Arial'" text-anchor="start">integer</text>
      <text x="312" y="537" fill="#000000" font-size="10" font-family="'Arial Unicode MS','Arial'" text-anchor="start">integer</text>
      <text x="312" y="550" fill="#000000" font-size="10" font-family="'Arial Unicode MS','Arial'" text-anchor="start">char(3)</text>
      <text x="312" y="563" fill="#000000" font-size="10" font-family="'Arial Unicode MS','Arial'" text-anchor="start">varchar(256)</text>
      <text x="312" y="576" fill="#000000" font-size="10" font-family="'Arial Unicode MS','Arial'" text-anchor="start">char(1)</text>
      <text x="312" y="589" fill="#000000" font-size="10" font-family="'Arial Unicode MS','Arial'" text-anchor="start">varchar(256)</text>
      <text x="312" y="602" fill="#000000" font-size="10" font-family="'Arial Unicode MS','Arial'" text-anchor="start">varchar(256)</text>
      <text x="312" y="615" fill="#000000" font-size="10" font-family="'Arial Unicode MS','Arial'" text-anchor="start">char(5)</text>
      <text x="312" y="628" fill="#000000" font-size="10" font-family="'Arial Unicode MS','Arial'" text-anchor="start">varchar(20)</text>
      <text x="312" y="641" fill="#000000" font-size="10" font-family="'Arial Unicode MS','Arial'" text-anchor="start">numeric(8)</text>
      <text x="312" y="654" fill="#000000" font-size="10" font-family="'Arial Unicode MS','Arial'" text-anchor="start">char(8)</text>
      <text x="378" y="511" fill="#000000" font-size="10" font-family="'Arial Unicode MS','Arial'" text-anchor="start" text-decoration="underline">&lt;pk&gt;</text>
      <text x="378" y="524" fill="#000000" font-size="10" font-family="'Arial Unicode MS','Arial'" text-anchor="start">&lt;fk&gt;</text>
      <text x="378" y="537" fill="#000000" font-size="10" font-family="'Arial Unicode MS','Arial'" text-anchor="start">&lt;fk&gt;</text>
   </a>
   <a target="_parent" xlink:href="Rapp14.htm#413">
      <rect x="999" y="605" fill="#ffffff" width="0" height="0" stroke="none" stroke-width="0"/>
      <defs>
         <linearGradient id="Gradient7" x1="0%" x2="100%" y1="0%" y2="100%" gradientUnits="objectBoundingBox">
            <stop offset="5%" stop-color="#ffffff"/>
            <stop offset="95%" stop-color="#b0ffff"/>
         </linearGradient>
      </defs>
      <rect x="999" y="605" fill="url(#Gradient7)" width="183" height="73" stroke="#00aaaa" stroke-width="1"/>
      <text x="1090" y="616" fill="#000000" font-size="10" font-family="'Arial Unicode MS','Arial'" text-anchor="middle">Document</text>
      <line x1="999" x2="1182" y1="622" y2="622" stroke="#00aaaa" stroke-width="1"/>
      <text x="1004" y="632" fill="#000000" font-size="10" font-family="'Arial Unicode MS','Arial'" text-anchor="start" text-decoration="underline">idDocument</text>
      <text x="1004" y="645" fill="#000000" font-size="10" font-family="'Arial Unicode MS','Arial'" text-anchor="start">idProject</text>
      <text x="1004" y="658" fill="#000000" font-size="10" font-family="'Arial Unicode MS','Arial'" text-anchor="start">titleDocument</text>
      <text x="1004" y="671" fill="#000000" font-size="10" font-family="'Arial Unicode MS','Arial'" text-anchor="start">resumDocument</text>
      <text x="1088" y="632" fill="#000000" font-size="10" font-family="'Arial Unicode MS','Arial'" text-anchor="start" text-decoration="underline">integer</text>
      <text x="1088" y="645" fill="#000000" font-size="10" font-family="'Arial Unicode MS','Arial'" text-anchor="start">integer</text>
      <text x="1088" y="658" fill="#000000" font-size="10" font-family="'Arial Unicode MS','Arial'" text-anchor="start">varchar(50)</text>
      <text x="1088" y="671" fill="#000000" font-size="10" font-family="'Arial Unicode MS','Arial'" text-anchor="start">varchar(256)</text>
      <text x="1154" y="632" fill="#000000" font-size="10" font-family="'Arial Unicode MS','Arial'" text-anchor="start" text-decoration="underline">&lt;pk&gt;</text>
      <text x="1154" y="645" fill="#000000" font-size="10" font-family="'Arial Unicode MS','Arial'" text-anchor="start">&lt;fk&gt;</text>
   </a>
   <a target="_parent" xlink:href="Rapp26.htm#1117">
      <rect x="1307" y="696" fill="#ffffff" width="0" height="0" stroke="none" stroke-width="0"/>
      <defs>
         <linearGradient id="Gradient8" x1="0%" x2="100%" y1="0%" y2="100%" gradientUnits="objectBoundingBox">
            <stop offset="5%" stop-color="#ffffff"/>
            <stop offset="95%" stop-color="#b0ffff"/>
         </linearGradient>
      </defs>
      <rect x="1307" y="696" fill="url(#Gradient8)" width="152" height="60" stroke="#00aaaa" stroke-width="1"/>
      <text x="1383" y="707" fill="#000000" font-size="10" font-family="'Arial Unicode MS','Arial'" text-anchor="middle">Stage</text>
      <line x1="1307" x2="1459" y1="713" y2="713" stroke="#00aaaa" stroke-width="1"/>
      <text x="1312" y="723" fill="#000000" font-size="10" font-family="'Arial Unicode MS','Arial'" text-anchor="start" text-decoration="underline">idLot</text>
      <text x="1312" y="736" fill="#000000" font-size="10" font-family="'Arial Unicode MS','Arial'" text-anchor="start">idProject</text>
      <text x="1312" y="749" fill="#000000" font-size="10" font-family="'Arial Unicode MS','Arial'" text-anchor="start">labelStage</text>
      <text x="1372" y="723" fill="#000000" font-size="10" font-family="'Arial Unicode MS','Arial'" text-anchor="start" text-decoration="underline">integer</text>
      <text x="1372" y="736" fill="#000000" font-size="10" font-family="'Arial Unicode MS','Arial'" text-anchor="start">integer</text>
      <text x="1372" y="749" fill="#000000" font-size="10" font-family="'Arial Unicode MS','Arial'" text-anchor="start">varchar(50)</text>
      <text x="1432" y="723" fill="#000000" font-size="10" font-family="'Arial Unicode MS','Arial'" text-anchor="start" text-decoration="underline">&lt;pk&gt;</text>
      <text x="1432" y="736" fill="#000000" font-size="10" font-family="'Arial Unicode MS','Arial'" text-anchor="start">&lt;fk&gt;</text>
   </a>
   <a target="_parent" xlink:href="Rapp20.htm#734">
      <rect x="699" y="714" fill="#ffffff" width="0" height="0" stroke="none" stroke-width="0"/>
      <defs>
         <linearGradient id="Gradient9" x1="0%" x2="100%" y1="0%" y2="100%" gradientUnits="objectBoundingBox">
            <stop offset="5%" stop-color="#ffffff"/>
            <stop offset="95%" stop-color="#b0ffff"/>
         </linearGradient>
      </defs>
      <rect x="699" y="714" fill="url(#Gradient9)" width="190" height="99" stroke="#00aaaa" stroke-width="1"/>
      <text x="794" y="725" fill="#000000" font-size="10" font-family="'Arial Unicode MS','Arial'" text-anchor="middle">Intervention</text>
      <line x1="699" x2="889" y1="731" y2="731" stroke="#00aaaa" stroke-width="1"/>
      <text x="704" y="741" fill="#000000" font-size="10" font-family="'Arial Unicode MS','Arial'" text-anchor="start" text-decoration="underline">idIntervention</text>
      <text x="704" y="754" fill="#000000" font-size="10" font-family="'Arial Unicode MS','Arial'" text-anchor="start">idContributor</text>
      <text x="704" y="767" fill="#000000" font-size="10" font-family="'Arial Unicode MS','Arial'" text-anchor="start">idLot</text>
      <text x="704" y="780" fill="#000000" font-size="10" font-family="'Arial Unicode MS','Arial'" text-anchor="start">labelintervention</text>
      <text x="704" y="793" fill="#000000" font-size="10" font-family="'Arial Unicode MS','Arial'" text-anchor="start">startDate</text>
      <text x="704" y="806" fill="#000000" font-size="10" font-family="'Arial Unicode MS','Arial'" text-anchor="start">endDate</text>
      <text x="792" y="741" fill="#000000" font-size="10" font-family="'Arial Unicode MS','Arial'" text-anchor="start" text-decoration="underline">integer</text>
      <text x="792" y="754" fill="#000000" font-size="10" font-family="'Arial Unicode MS','Arial'" text-anchor="start">integer</text>
      <text x="792" y="767" fill="#000000" font-size="10" font-family="'Arial Unicode MS','Arial'" text-anchor="start">integer</text>
      <text x="792" y="780" fill="#000000" font-size="10" font-family="'Arial Unicode MS','Arial'" text-anchor="start">varchar(256)</text>
      <text x="792" y="793" fill="#000000" font-size="10" font-family="'Arial Unicode MS','Arial'" text-anchor="start">date</text>
      <text x="792" y="806" fill="#000000" font-size="10" font-family="'Arial Unicode MS','Arial'" text-anchor="start">date</text>
      <text x="858" y="741" fill="#000000" font-size="10" font-family="'Arial Unicode MS','Arial'" text-anchor="start" text-decoration="underline">&lt;pk&gt;</text>
      <text x="858" y="754" fill="#000000" font-size="10" font-family="'Arial Unicode MS','Arial'" text-anchor="start">&lt;fk2&gt;</text>
      <text x="858" y="767" fill="#000000" font-size="10" font-family="'Arial Unicode MS','Arial'" text-anchor="start">&lt;fk1&gt;</text>
   </a>
   <a target="_parent" xlink:href="Rapp22.htm#932">
      <rect x="1294" y="56" fill="#ffffff" width="0" height="0" stroke="none" stroke-width="0"/>
      <defs>
         <linearGradient id="Gradient10" x1="0%" x2="100%" y1="0%" y2="100%" gradientUnits="objectBoundingBox">
            <stop offset="5%" stop-color="#ffffff"/>
            <stop offset="95%" stop-color="#b0ffff"/>
         </linearGradient>
      </defs>
      <rect x="1294" y="56" fill="url(#Gradient10)" width="188" height="54" stroke="#00aaaa" stroke-width="1"/>
      <text x="1388" y="67" fill="#000000" font-size="10" font-family="'Arial Unicode MS','Arial'" text-anchor="middle">ProjectType</text>
      <line x1="1294" x2="1482" y1="73" y2="73" stroke="#00aaaa" stroke-width="1"/>
      <text x="1299" y="83" fill="#000000" font-size="10" font-family="'Arial Unicode MS','Arial'" text-anchor="start" text-decoration="underline">idTypeProject</text>
      <text x="1299" y="96" fill="#000000" font-size="10" font-family="'Arial Unicode MS','Arial'" text-anchor="start">labelTypeProject</text>
      <text x="1388" y="83" fill="#000000" font-size="10" font-family="'Arial Unicode MS','Arial'" text-anchor="start" text-decoration="underline">integer</text>
      <text x="1388" y="96" fill="#000000" font-size="10" font-family="'Arial Unicode MS','Arial'" text-anchor="start">varchar(256)</text>
      <text x="1454" y="83" fill="#000000" font-size="10" font-family="'Arial Unicode MS','Arial'" text-anchor="start" text-decoration="underline">&lt;pk&gt;</text>
   </a>
   <a target="_parent" xlink:href="Rapp10.htm#131">
      <rect x="544" y="82" fill="#ffffff" width="0" height="0" stroke="none" stroke-width="0"/>
      <defs>
         <linearGradient id="Gradient11" x1="0%" x2="100%" y1="0%" y2="100%" gradientUnits="objectBoundingBox">
            <stop offset="5%" stop-color="#ffffff"/>
            <stop offset="95%" stop-color="#b0ffff"/>
         </linearGradient>
      </defs>
      <rect x="544" y="82" fill="url(#Gradient11)" width="188" height="203" stroke="#00aaaa" stroke-width="1"/>
      <text x="638" y="93" fill="#000000" font-size="10" font-family="'Arial Unicode MS','Arial'" text-anchor="middle">Client</text>
      <line x1="544" x2="732" y1="99" y2="99" stroke="#00aaaa" stroke-width="1"/>
      <text x="548" y="109" fill="#000000" font-size="10" font-family="'Arial Unicode MS','Arial'" text-anchor="start" text-decoration="underline">idClient</text>
      <text x="548" y="122" fill="#000000" font-size="10" font-family="'Arial Unicode MS','Arial'" text-anchor="start">nameClient</text>
      <text x="548" y="135" fill="#000000" font-size="10" font-family="'Arial Unicode MS','Arial'" text-anchor="start">typeClient</text>
      <text x="548" y="148" fill="#000000" font-size="10" font-family="'Arial Unicode MS','Arial'" text-anchor="start">contactClient</text>
      <text x="548" y="161" fill="#000000" font-size="10" font-family="'Arial Unicode MS','Arial'" text-anchor="start">functionContact</text>
      <text x="548" y="174" fill="#000000" font-size="10" font-family="'Arial Unicode MS','Arial'" text-anchor="start">adressClient</text>
      <text x="548" y="187" fill="#000000" font-size="10" font-family="'Arial Unicode MS','Arial'" text-anchor="start">phoneClient</text>
      <text x="548" y="200" fill="#000000" font-size="10" font-family="'Arial Unicode MS','Arial'" text-anchor="start">mailClient</text>
      <text x="548" y="213" fill="#000000" font-size="10" font-family="'Arial Unicode MS','Arial'" text-anchor="start">businessSector</text>
      <text x="548" y="226" fill="#000000" font-size="10" font-family="'Arial Unicode MS','Arial'" text-anchor="start">nature</text>
      <text x="548" y="239" fill="#000000" font-size="10" font-family="'Arial Unicode MS','Arial'" text-anchor="start">turnover</text>
      <text x="548" y="252" fill="#000000" font-size="10" font-family="'Arial Unicode MS','Arial'" text-anchor="start">workforce</text>
      <text x="548" y="265" fill="#000000" font-size="10" font-family="'Arial Unicode MS','Arial'" text-anchor="start">generalComment</text>
      <text x="548" y="278" fill="#000000" font-size="10" font-family="'Arial Unicode MS','Arial'" text-anchor="start">specificComment</text>
      <text x="638" y="109" fill="#000000" font-size="10" font-family="'Arial Unicode MS','Arial'" text-anchor="start" text-decoration="underline">integer</text>
      <text x="638" y="122" fill="#000000" font-size="10" font-family="'Arial Unicode MS','Arial'" text-anchor="start">varchar(256)</text>
      <text x="638" y="135" fill="#000000" font-size="10" font-family="'Arial Unicode MS','Arial'" text-anchor="start">char(6)</text>
      <text x="638" y="148" fill="#000000" font-size="10" font-family="'Arial Unicode MS','Arial'" text-anchor="start">varchar(256)</text>
      <text x="638" y="161" fill="#000000" font-size="10" font-family="'Arial Unicode MS','Arial'" text-anchor="start">varchar(256)</text>
      <text x="638" y="174" fill="#000000" font-size="10" font-family="'Arial Unicode MS','Arial'" text-anchor="start">varchar(256)</text>
      <text x="638" y="187" fill="#000000" font-size="10" font-family="'Arial Unicode MS','Arial'" text-anchor="start">varchar(20)</text>
      <text x="638" y="200" fill="#000000" font-size="10" font-family="'Arial Unicode MS','Arial'" text-anchor="start">varchar(256)</text>
      <text x="638" y="213" fill="#000000" font-size="10" font-family="'Arial Unicode MS','Arial'" text-anchor="start">varchar(256)</text>
      <text x="638" y="226" fill="#000000" font-size="10" font-family="'Arial Unicode MS','Arial'" text-anchor="start">char(10)</text>
      <text x="638" y="239" fill="#000000" font-size="10" font-family="'Arial Unicode MS','Arial'" text-anchor="start">numeric(30)</text>
      <text x="638" y="252" fill="#000000" font-size="10" font-family="'Arial Unicode MS','Arial'" text-anchor="start">integer</text>
      <text x="638" y="265" fill="#000000" font-size="10" font-family="'Arial Unicode MS','Arial'" text-anchor="start">varchar(500)</text>
      <text x="638" y="278" fill="#000000" font-size="10" font-family="'Arial Unicode MS','Arial'" text-anchor="start">varchar(500)</text>
      <text x="704" y="109" fill="#000000" font-size="10" font-family="'Arial Unicode MS','Arial'" text-anchor="start" text-decoration="underline">&lt;pk&gt;</text>
   </a>
   <a target="_parent" xlink:href="Rapp9.htm#72">
      <rect x="1428" y="573" fill="#ffffff" width="0" height="0" stroke="none" stroke-width="0"/>
      <defs>
         <linearGradient id="Gradient12" x1="0%" x2="100%" y1="0%" y2="100%" gradientUnits="objectBoundingBox">
            <stop offset="5%" stop-color="#ffffff"/>
            <stop offset="95%" stop-color="#b0ffff"/>
         </linearGradient>
      </defs>
      <rect x="1428" y="573" fill="url(#Gradient12)" width="181" height="86" stroke="#00aaaa" stroke-width="1"/>
      <text x="1518" y="584" fill="#000000" font-size="10" font-family="'Arial Unicode MS','Arial'" text-anchor="middle">ChargeStage</text>
      <line x1="1428" x2="1609" y1="590" y2="590" stroke="#00aaaa" stroke-width="1"/>
      <text x="1432" y="600" fill="#000000" font-size="10" font-family="'Arial Unicode MS','Arial'" text-anchor="start" text-decoration="underline">idCharge</text>
      <text x="1432" y="613" fill="#000000" font-size="10" font-family="'Arial Unicode MS','Arial'" text-anchor="start">idLot</text>
      <text x="1432" y="626" fill="#000000" font-size="10" font-family="'Arial Unicode MS','Arial'" text-anchor="start">productionCharge</text>
      <text x="1432" y="639" fill="#000000" font-size="10" font-family="'Arial Unicode MS','Arial'" text-anchor="start">validationCharge</text>
      <text x="1432" y="652" fill="#000000" font-size="10" font-family="'Arial Unicode MS','Arial'" text-anchor="start">initialchargeEstimate</text>
      <text x="1540" y="600" fill="#000000" font-size="10" font-family="'Arial Unicode MS','Arial'" text-anchor="start" text-decoration="underline">integer</text>
      <text x="1540" y="613" fill="#000000" font-size="10" font-family="'Arial Unicode MS','Arial'" text-anchor="start">integer</text>
      <text x="1540" y="626" fill="#000000" font-size="10" font-family="'Arial Unicode MS','Arial'" text-anchor="start">time</text>
      <text x="1540" y="639" fill="#000000" font-size="10" font-family="'Arial Unicode MS','Arial'" text-anchor="start">time</text>
      <text x="1540" y="652" fill="#000000" font-size="10" font-family="'Arial Unicode MS','Arial'" text-anchor="start">time</text>
      <text x="1581" y="600" fill="#000000" font-size="10" font-family="'Arial Unicode MS','Arial'" text-anchor="start" text-decoration="underline">&lt;pk&gt;</text>
      <text x="1581" y="613" fill="#000000" font-size="10" font-family="'Arial Unicode MS','Arial'" text-anchor="start">&lt;fk&gt;</text>
   </a>
   <a target="_parent" xlink:href="Rapp16.htm#570">
      <rect x="1453" y="483" fill="#ffffff" width="0" height="0" stroke="none" stroke-width="0"/>
      <defs>
         <linearGradient id="Gradient13" x1="0%" x2="100%" y1="0%" y2="100%" gradientUnits="objectBoundingBox">
            <stop offset="5%" stop-color="#ffffff"/>
            <stop offset="95%" stop-color="#b0ffff"/>
         </linearGradient>
      </defs>
      <rect x="1453" y="483" fill="url(#Gradient13)" width="164" height="54" stroke="#00aaaa" stroke-width="1"/>
      <text x="1535" y="494" fill="#000000" font-size="10" font-family="'Arial Unicode MS','Arial'" text-anchor="middle">Experience</text>
      <line x1="1453" x2="1617" y1="500" y2="500" stroke="#00aaaa" stroke-width="1"/>
      <text x="1458" y="510" fill="#000000" font-size="10" font-family="'Arial Unicode MS','Arial'" text-anchor="start" text-decoration="underline">idReturnExp</text>
      <text x="1458" y="523" fill="#000000" font-size="10" font-family="'Arial Unicode MS','Arial'" text-anchor="start">labelExp</text>
      <text x="1524" y="510" fill="#000000" font-size="10" font-family="'Arial Unicode MS','Arial'" text-anchor="start" text-decoration="underline">integer</text>
      <text x="1524" y="523" fill="#000000" font-size="10" font-family="'Arial Unicode MS','Arial'" text-anchor="start">varchar(256)</text>
      <text x="1590" y="510" fill="#000000" font-size="10" font-family="'Arial Unicode MS','Arial'" text-anchor="start" text-decoration="underline">&lt;pk&gt;</text>
   </a>
   <a target="_parent" xlink:href="Rapp12.htm#279">
      <rect x="109" y="205" fill="#ffffff" width="0" height="0" stroke="none" stroke-width="0"/>
      <defs>
         <linearGradient id="Gradient14" x1="0%" x2="100%" y1="0%" y2="100%" gradientUnits="objectBoundingBox">
            <stop offset="5%" stop-color="#ffffff"/>
            <stop offset="95%" stop-color="#d0d0ff"/>
         </linearGradient>
      </defs>
      <rect x="109" y="205" fill="url(#Gradient14)" width="186" height="125" stroke="#8080ff" stroke-width="1"/>
      <text x="202" y="216" fill="#000000" font-size="10" font-family="'Arial Unicode MS','Arial'" text-anchor="middle">Contract</text>
      <line x1="109" x2="295" y1="222" y2="222" stroke="#8080ff" stroke-width="1"/>
      <text x="114" y="232" fill="#000000" font-size="10" font-family="'Arial Unicode MS','Arial'" text-anchor="start" text-decoration="underline">idStatus</text>
      <text x="114" y="245" fill="#000000" font-size="10" font-family="'Arial Unicode MS','Arial'" text-anchor="start" text-decoration="underline">idEmployee</text>
      <text x="114" y="258" fill="#000000" font-size="10" font-family="'Arial Unicode MS','Arial'" text-anchor="start" text-decoration="underline">idFunction</text>
      <text x="114" y="271" fill="#000000" font-size="10" font-family="'Arial Unicode MS','Arial'" text-anchor="start">datesign</text>
      <text x="114" y="284" fill="#000000" font-size="10" font-family="'Arial Unicode MS','Arial'" text-anchor="start">dateAugmentation</text>
      <text x="114" y="297" fill="#000000" font-size="10" font-family="'Arial Unicode MS','Arial'" text-anchor="start">datePromotion</text>
      <text x="114" y="310" fill="#000000" font-size="10" font-family="'Arial Unicode MS','Arial'" text-anchor="start">recruitmentDate</text>
      <text x="114" y="323" fill="#000000" font-size="10" font-family="'Arial Unicode MS','Arial'" text-anchor="start">contractEndDate</text>
      <text x="210" y="232" fill="#000000" font-size="10" font-family="'Arial Unicode MS','Arial'" text-anchor="start" text-decoration="underline">integer</text>
      <text x="210" y="245" fill="#000000" font-size="10" font-family="'Arial Unicode MS','Arial'" text-anchor="start" text-decoration="underline">integer</text>
      <text x="210" y="258" fill="#000000" font-size="10" font-family="'Arial Unicode MS','Arial'" text-anchor="start" text-decoration="underline">integer</text>
      <text x="210" y="271" fill="#000000" font-size="10" font-family="'Arial Unicode MS','Arial'" text-anchor="start">date</text>
      <text x="210" y="284" fill="#000000" font-size="10" font-family="'Arial Unicode MS','Arial'" text-anchor="start">date</text>
      <text x="210" y="297" fill="#000000" font-size="10" font-family="'Arial Unicode MS','Arial'" text-anchor="start">date</text>
      <text x="210" y="310" fill="#000000" font-size="10" font-family="'Arial Unicode MS','Arial'" text-anchor="start">date</text>
      <text x="210" y="323" fill="#000000" font-size="10" font-family="'Arial Unicode MS','Arial'" text-anchor="start">date</text>
      <text x="251" y="232" fill="#000000" font-size="10" font-family="'Arial Unicode MS','Arial'" text-anchor="start" text-decoration="underline">&lt;pk,fk1&gt;</text>
      <text x="251" y="245" fill="#000000" font-size="10" font-family="'Arial Unicode MS','Arial'" text-anchor="start" text-decoration="underline">&lt;pk,fk2&gt;</text>
      <text x="251" y="258" fill="#000000" font-size="10" font-family="'Arial Unicode MS','Arial'" text-anchor="start" text-decoration="underline">&lt;pk,fk3&gt;</text>
   </a>
   <a target="_parent" xlink:href="Rapp8.htm#14">
      <rect x="407" y="668" fill="#ffffff" width="0" height="0" stroke="none" stroke-width="0"/>
      <defs>
         <linearGradient id="Gradient15" x1="0%" x2="100%" y1="0%" y2="100%" gradientUnits="objectBoundingBox">
            <stop offset="5%" stop-color="#ffffff"/>
            <stop offset="95%" stop-color="#d0d0ff"/>
         </linearGradient>
      </defs>
      <rect x="407" y="668" fill="url(#Gradient15)" width="170" height="73" stroke="#8080ff" stroke-width="1"/>
      <text x="492" y="679" fill="#000000" font-size="10" font-family="'Arial Unicode MS','Arial'" text-anchor="middle">Affectation</text>
      <line x1="407" x2="577" y1="685" y2="685" stroke="#8080ff" stroke-width="1"/>
      <text x="412" y="695" fill="#000000" font-size="10" font-family="'Arial Unicode MS','Arial'" text-anchor="start" text-decoration="underline">idIntervention</text>
      <text x="412" y="708" fill="#000000" font-size="10" font-family="'Arial Unicode MS','Arial'" text-anchor="start" text-decoration="underline">idEmployee</text>
      <text x="412" y="721" fill="#000000" font-size="10" font-family="'Arial Unicode MS','Arial'" text-anchor="start">dateAffectation</text>
      <text x="412" y="734" fill="#000000" font-size="10" font-family="'Arial Unicode MS','Arial'" text-anchor="start">dateTest</text>
      <text x="492" y="695" fill="#000000" font-size="10" font-family="'Arial Unicode MS','Arial'" text-anchor="start" text-decoration="underline">integer</text>
      <text x="492" y="708" fill="#000000" font-size="10" font-family="'Arial Unicode MS','Arial'" text-anchor="start" text-decoration="underline">integer</text>
      <text x="492" y="721" fill="#000000" font-size="10" font-family="'Arial Unicode MS','Arial'" text-anchor="start">date</text>
      <text x="492" y="734" fill="#000000" font-size="10" font-family="'Arial Unicode MS','Arial'" text-anchor="start">date</text>
      <text x="533" y="695" fill="#000000" font-size="10" font-family="'Arial Unicode MS','Arial'" text-anchor="start" text-decoration="underline">&lt;pk,fk1&gt;</text>
      <text x="533" y="708" fill="#000000" font-size="10" font-family="'Arial Unicode MS','Arial'" text-anchor="start" text-decoration="underline">&lt;pk,fk2&gt;</text>
   </a>
   <a target="_parent" xlink:href="Rapp25.htm#1065">
      <rect x="640" y="599" fill="#ffffff" width="0" height="0" stroke="none" stroke-width="0"/>
      <defs>
         <linearGradient id="Gradient16" x1="0%" x2="100%" y1="0%" y2="100%" gradientUnits="objectBoundingBox">
            <stop offset="5%" stop-color="#ffffff"/>
            <stop offset="95%" stop-color="#d0d0ff"/>
         </linearGradient>
      </defs>
      <rect x="640" y="599" fill="url(#Gradient16)" width="154" height="60" stroke="#8080ff" stroke-width="1"/>
      <text x="717" y="610" fill="#000000" font-size="10" font-family="'Arial Unicode MS','Arial'" text-anchor="middle">Save</text>
      <line x1="640" x2="794" y1="616" y2="616" stroke="#8080ff" stroke-width="1"/>
      <text x="645" y="626" fill="#000000" font-size="10" font-family="'Arial Unicode MS','Arial'" text-anchor="start" text-decoration="underline">idEmployee</text>
      <text x="645" y="639" fill="#000000" font-size="10" font-family="'Arial Unicode MS','Arial'" text-anchor="start" text-decoration="underline">idDocument</text>
      <text x="645" y="652" fill="#000000" font-size="10" font-family="'Arial Unicode MS','Arial'" text-anchor="start">saveDate</text>
      <text x="710" y="626" fill="#000000" font-size="10" font-family="'Arial Unicode MS','Arial'" text-anchor="start" text-decoration="underline">integer</text>
      <text x="710" y="639" fill="#000000" font-size="10" font-family="'Arial Unicode MS','Arial'" text-anchor="start" text-decoration="underline">integer</text>
      <text x="710" y="652" fill="#000000" font-size="10" font-family="'Arial Unicode MS','Arial'" text-anchor="start">date</text>
      <text x="751" y="626" fill="#000000" font-size="10" font-family="'Arial Unicode MS','Arial'" text-anchor="start" text-decoration="underline">&lt;pk,fk1&gt;</text>
      <text x="751" y="639" fill="#000000" font-size="10" font-family="'Arial Unicode MS','Arial'" text-anchor="start" text-decoration="underline">&lt;pk,fk2&gt;</text>
   </a>
   <a target="_parent" xlink:href="Rapp24.htm#1019">
      <rect x="1455" y="366" fill="#ffffff" width="0" height="0" stroke="none" stroke-width="0"/>
      <defs>
         <linearGradient id="Gradient17" x1="0%" x2="100%" y1="0%" y2="100%" gradientUnits="objectBoundingBox">
            <stop offset="5%" stop-color="#ffffff"/>
            <stop offset="95%" stop-color="#d0d0ff"/>
         </linearGradient>
      </defs>
      <rect x="1455" y="366" fill="url(#Gradient17)" width="155" height="53" stroke="#8080ff" stroke-width="1"/>
      <text x="1532" y="377" fill="#000000" font-size="10" font-family="'Arial Unicode MS','Arial'" text-anchor="middle">ReturnExperience</text>
      <line x1="1455" x2="1610" y1="383" y2="383" stroke="#8080ff" stroke-width="1"/>
      <text x="1460" y="393" fill="#000000" font-size="10" font-family="'Arial Unicode MS','Arial'" text-anchor="start" text-decoration="underline">idProject</text>
      <text x="1460" y="406" fill="#000000" font-size="10" font-family="'Arial Unicode MS','Arial'" text-anchor="start" text-decoration="underline">idReturnExp</text>
      <text x="1526" y="393" fill="#000000" font-size="10" font-family="'Arial Unicode MS','Arial'" text-anchor="start" text-decoration="underline">integer</text>
      <text x="1526" y="406" fill="#000000" font-size="10" font-family="'Arial Unicode MS','Arial'" text-anchor="start" text-decoration="underline">integer</text>
      <text x="1567" y="393" fill="#000000" font-size="10" font-family="'Arial Unicode MS','Arial'" text-anchor="start" text-decoration="underline">&lt;pk,fk1&gt;</text>
      <text x="1567" y="406" fill="#000000" font-size="10" font-family="'Arial Unicode MS','Arial'" text-anchor="start" text-decoration="underline">&lt;pk,fk2&gt;</text>
   </a>
   <a target="_parent" xlink:href="Rapp11.htm#238">
      <rect x="188" y="726" fill="#ffffff" width="0" height="0" stroke="none" stroke-width="0"/>
      <defs>
         <linearGradient id="Gradient18" x1="0%" x2="100%" y1="0%" y2="100%" gradientUnits="objectBoundingBox">
            <stop offset="5%" stop-color="#ffffff"/>
            <stop offset="95%" stop-color="#b0ffff"/>
         </linearGradient>
      </defs>
      <rect x="188" y="726" fill="url(#Gradient18)" width="188" height="60" stroke="#00aaaa" stroke-width="1"/>
      <text x="282" y="737" fill="#000000" font-size="10" font-family="'Arial Unicode MS','Arial'" text-anchor="middle">ClientContributor</text>
      <line x1="188" x2="376" y1="743" y2="743" stroke="#00aaaa" stroke-width="1"/>
      <text x="192" y="753" fill="#000000" font-size="10" font-family="'Arial Unicode MS','Arial'" text-anchor="start" text-decoration="underline">idContributor</text>
      <text x="192" y="766" fill="#000000" font-size="10" font-family="'Arial Unicode MS','Arial'" text-anchor="start">insideContributor</text>
      <text x="192" y="779" fill="#000000" font-size="10" font-family="'Arial Unicode MS','Arial'" text-anchor="start">externContributor</text>
      <text x="281" y="753" fill="#000000" font-size="10" font-family="'Arial Unicode MS','Arial'" text-anchor="start" text-decoration="underline">integer</text>
      <text x="281" y="766" fill="#000000" font-size="10" font-family="'Arial Unicode MS','Arial'" text-anchor="start">varchar(256)</text>
      <text x="281" y="779" fill="#000000" font-size="10" font-family="'Arial Unicode MS','Arial'" text-anchor="start">varchar(256)</text>
      <text x="347" y="753" fill="#000000" font-size="10" font-family="'Arial Unicode MS','Arial'" text-anchor="start" text-decoration="underline">&lt;pk&gt;</text>
   </a>
   <a target="_parent" xlink:href="Rapp23.htm#967">
      <rect x="557" y="360" fill="#ffffff" width="0" height="0" stroke="none" stroke-width="0"/>
      <defs>
         <linearGradient id="Gradient19" x1="0%" x2="100%" y1="0%" y2="100%" gradientUnits="objectBoundingBox">
            <stop offset="5%" stop-color="#ffffff"/>
            <stop offset="95%" stop-color="#d0d0ff"/>
         </linearGradient>
      </defs>
      <rect x="557" y="360" fill="url(#Gradient19)" width="156" height="60" stroke="#8080ff" stroke-width="1"/>
      <text x="635" y="371" fill="#000000" font-size="10" font-family="'Arial Unicode MS','Arial'" text-anchor="middle">Register</text>
      <line x1="557" x2="713" y1="377" y2="377" stroke="#8080ff" stroke-width="1"/>
      <text x="562" y="387" fill="#000000" font-size="10" font-family="'Arial Unicode MS','Arial'" text-anchor="start" text-decoration="underline">idClient</text>
      <text x="562" y="400" fill="#000000" font-size="10" font-family="'Arial Unicode MS','Arial'" text-anchor="start" text-decoration="underline">idEmployee</text>
      <text x="562" y="413" fill="#000000" font-size="10" font-family="'Arial Unicode MS','Arial'" text-anchor="start">dateRegister</text>
      <text x="629" y="387" fill="#000000" font-size="10" font-family="'Arial Unicode MS','Arial'" text-anchor="start" text-decoration="underline">integer</text>
      <text x="629" y="400" fill="#000000" font-size="10" font-family="'Arial Unicode MS','Arial'" text-anchor="start" text-decoration="underline">integer</text>
      <text x="629" y="413" fill="#000000" font-size="10" font-family="'Arial Unicode MS','Arial'" text-anchor="start">date</text>
      <text x="670" y="387" fill="#000000" font-size="10" font-family="'Arial Unicode MS','Arial'" text-anchor="start" text-decoration="underline">&lt;pk,fk1&gt;</text>
      <text x="670" y="400" fill="#000000" font-size="10" font-family="'Arial Unicode MS','Arial'" text-anchor="start" text-decoration="underline">&lt;pk,fk2&gt;</text>
   </a>
   <a target="_parent" xlink:href="Rapp13.htm#367">
      <rect x="15" y="16" fill="#ffffff" width="0" height="0" stroke="none" stroke-width="0"/>
      <defs>
         <linearGradient id="Gradient20" x1="0%" x2="100%" y1="0%" y2="100%" gradientUnits="objectBoundingBox">
            <stop offset="5%" stop-color="#ffffff"/>
            <stop offset="95%" stop-color="#d0d0ff"/>
         </linearGradient>
      </defs>
      <rect x="15" y="16" fill="url(#Gradient20)" width="158" height="53" stroke="#8080ff" stroke-width="1"/>
      <text x="94" y="27" fill="#000000" font-size="10" font-family="'Arial Unicode MS','Arial'" text-anchor="middle">Contribute</text>
      <line x1="15" x2="173" y1="33" y2="33" stroke="#8080ff" stroke-width="1"/>
      <text x="20" y="43" fill="#000000" font-size="10" font-family="'Arial Unicode MS','Arial'" text-anchor="start" text-decoration="underline">idContributor</text>
      <text x="20" y="56" fill="#000000" font-size="10" font-family="'Arial Unicode MS','Arial'" text-anchor="start" text-decoration="underline">idClient</text>
      <text x="89" y="43" fill="#000000" font-size="10" font-family="'Arial Unicode MS','Arial'" text-anchor="start" text-decoration="underline">integer</text>
      <text x="89" y="56" fill="#000000" font-size="10" font-family="'Arial Unicode MS','Arial'" text-anchor="start" text-decoration="underline">integer</text>
      <text x="130" y="43" fill="#000000" font-size="10" font-family="'Arial Unicode MS','Arial'" text-anchor="start" text-decoration="underline">&lt;pk,fk1&gt;</text>
      <text x="130" y="56" fill="#000000" font-size="10" font-family="'Arial Unicode MS','Arial'" text-anchor="start" text-decoration="underline">&lt;pk,fk2&gt;</text>
   </a>
   <a target="_parent" xlink:href="Rapp19.htm#688">
      <rect x="911" y="220" fill="#ffffff" width="0" height="0" stroke="none" stroke-width="0"/>
      <defs>
         <linearGradient id="Gradient21" x1="0%" x2="100%" y1="0%" y2="100%" gradientUnits="objectBoundingBox">
            <stop offset="5%" stop-color="#ffffff"/>
            <stop offset="95%" stop-color="#d0d0ff"/>
         </linearGradient>
      </defs>
      <rect x="911" y="220" fill="url(#Gradient21)" width="171" height="54" stroke="#8080ff" stroke-width="1"/>
      <text x="996" y="231" fill="#000000" font-size="10" font-family="'Arial Unicode MS','Arial'" text-anchor="middle">HistoryTechnical</text>
      <line x1="911" x2="1082" y1="237" y2="237" stroke="#8080ff" stroke-width="1"/>
      <text x="916" y="247" fill="#000000" font-size="10" font-family="'Arial Unicode MS','Arial'" text-anchor="start" text-decoration="underline">idTechnicalInfo</text>
      <text x="916" y="260" fill="#000000" font-size="10" font-family="'Arial Unicode MS','Arial'" text-anchor="start" text-decoration="underline">idProject</text>
      <text x="998" y="247" fill="#000000" font-size="10" font-family="'Arial Unicode MS','Arial'" text-anchor="start" text-decoration="underline">integer</text>
      <text x="998" y="260" fill="#000000" font-size="10" font-family="'Arial Unicode MS','Arial'" text-anchor="start" text-decoration="underline">integer</text>
      <text x="1039" y="247" fill="#000000" font-size="10" font-family="'Arial Unicode MS','Arial'" text-anchor="start" text-decoration="underline">&lt;pk,fk1&gt;</text>
      <text x="1039" y="260" fill="#000000" font-size="10" font-family="'Arial Unicode MS','Arial'" text-anchor="start" text-decoration="underline">&lt;pk,fk2&gt;</text>
   </a>
</svg>
